ISLR Chapter 10 Exercises
…
cutree(clust_unscaled, k = 3) %>% 
  enframe(name = "state", value = "cluster") %>% 
  arrange(cluster)

## # A tibble: 50 x 2
##    state      cluster
##    <chr>        <int>
##  1 Alabama          1
##  2 Alaska           1
##  3 Arizona          1
##  4 California       1
##  5 Delaware         1
##  6 Florida          1
##  7 Illinois         1
##  8 Louisiana        1
##  9 Maryland         1
## 10 Michigan         1
## # ... with 40 more rows

Now we see logical clusters: SOuthern states, populous states, and an odd third cluster of the remainder. Since this makes more sense, and because the USArrests data are on wildly different scales, scaling is definitely warranted.

clust_scaled <- hclust(dist(scale(USArrests)))

cutree(clust_scaled, k = 3) %>% 
  enframe(name = "state", value = "cluster") %>% 
  arrange(cluster)

## # A tibble: 50 x 2
##    state          cluster
##    <chr>            <int>
##  1 Alabama              1
##  2 Alaska               1
##  3 Georgia              1
##  4 Louisiana            1
##  5 Mississippi          1
##  6 North Carolina       1
##  7 South Carolina       1
##  8 Tennessee            1
##  9 Arizona              2
## 10 California           2
## # ... with 40 more rows
…
